Rollup binary phecode pairs — rollup_phecode_pairs • phewasHelper
…
# Also works with just binary occurance pairs
patient_data %>%
  rollup_phecode_pairs(patient_col = patient,
                  phecode_col = code)
#> # A tibble: 22 x 2
#>    patient code  
#>      <dbl> <chr> 
#>  1       1 250.23
#>  2       1 250.25
#>  3       1 696.42
#>  4       1 555.21
#>  5       2 401.22
#>  6       2 204.21
#>  7       2 735.22
#>  8       2 751.11
#>  9       1 250.20
#> 10       1 696.40
#> # … with 12 more rows
…
